…
We eventually see other instances in which using the `.` is useful. For now, we will only use it to produce numeric vectors from pipelines constructed with dplyr.

Group then summarize
--------------------

A common operation in data exploration is to first split data into groups and then compute summaries for each group. For example, we may want to compute the median and IQR for each region of the country. The `group_by` function helps us do this.

If we type this:

``` r
murders %>% group_by(region)
```

    ## # A tibble: 51 x 7
    ## # Groups:   region [4]
    ##    state                abb   region    population total  rate  rank
    ##    <chr>                <chr> <fct>          <dbl> <dbl> <dbl> <dbl>
    ##  1 Alabama              AL    South        4779736   135  2.82    23
    ##  2 Alaska               AK    West          710231    19  2.68    27
    ##  3 Arizona              AZ    West         6392017   232  3.63    10
    ##  4 Arkansas             AR    South        2915918    93  3.19    17
    ##  5 California           CA    West        37253956  1257  3.37    14
    ##  6 Colorado             CO    West         5029196    65  1.29    38
    ##  7 Connecticut          CT    Northeast    3574097    97  2.71    25
    ##  8 Delaware             DE    South         897934    38  4.23     6
    ##  9 District of Columbia DC    South         601723    99 16.5      1
    ## 10 Florida              FL    South       19687653   669  3.40    13
    ## # ... with 41 more rows
…
