Wrangling
…
## [1] "1960_fertility"       "1960_fertility"       "1960_life_expectancy"
## [4] "1960_life_expectancy" "1961_fertility"

Encoding multiple variables in a column name is such a common problem that the readr package includes a function to separate these columns into two or more. Apart from the data, the separate function takes three arguments: the name of the column to be separated, the names to be used for the new columns, and the character that separates the variables. So, a first attempt at this is:

dat %>% separate(key, c("year", "variable_name"), "_")

Because _" is the default separator assumed by separate, we do not have to include it in the code:

dat %>% separate(key, c("year", "variable_name"))

## Warning: Expected 2 pieces. Additional pieces discarded in 112 rows [3, 4,
## 7, 8, 11, 12, 15, 16, 19, 20, 23, 24, 27, 28, 31, 32, 35, 36, 39, 40, ...].

## # A tibble: 224 x 4
##    country     year  variable_name value
##    <chr>       <chr> <chr>         <dbl>
##  1 Germany     1960  fertility      2.41
##  2 South Korea 1960  fertility      6.16
##  3 Germany     1960  life          69.3 
##  4 South Korea 1960  life          53.0 
##  5 Germany     1961  fertility      2.44
##  6 South Korea 1961  fertility      5.99
##  7 Germany     1961  life          69.8 
##  8 South Korea 1961  life          53.8 
##  9 Germany     1962  fertility      2.47
## 10 South Korea 1962  fertility      5.79
## # ... with 214 more rows

The function does separate the values, but we run into a new problem. We receive the warning Too many values at 112 locations: and that the life_expectancy variable is truncated to life. This is because the _ is used to separate life and expectancy not just year and variable name! We could add a third column to catch this and let the separate function know which column to fill in with missing values, NA, when there is no third value. Here we tell it to fill the column on the right:

dat %>% separate(key, c("year", "first_variable_name", "second_variable_name"), 
                 fill = "right")

## # A tibble: 224 x 5
##    country     year  first_variable_name second_variable_name value
##    <chr>       <chr> <chr>               <chr>                <dbl>
##  1 Germany     1960  fertility           <NA>                  2.41
##  2 South Korea 1960  fertility           <NA>                  6.16
##  3 Germany     1960  life                expectancy           69.3 
##  4 South Korea 1960  life                expectancy           53.0 
##  5 Germany     1961  fertility           <NA>                  2.44
##  6 South Korea 1961  fertility           <NA>                  5.99
##  7 Germany     1961  life                expectancy           69.8 
##  8 South Korea 1961  life                expectancy           53.8 
##  9 Germany     1962  fertility           <NA>                  2.47
## 10 South Korea 1962  fertility           <NA>                  5.79
## # ... with 214 more rows

However, if we read the separate help file, we find that a better approach is to merge the last two variables when there is an extra separation:

dat %>% separate(key, c("year", "variable_name"), extra = "merge")

## # A tibble: 224 x 4
##    country     year  variable_name   value
##    <chr>       <chr> <chr>           <dbl>
##  1 Germany     1960  fertility        2.41
##  2 South Korea 1960  fertility        6.16
##  3 Germany     1960  life_expectancy 69.3 
##  4 South Korea 1960  life_expectancy 53.0 
##  5 Germany     1961  fertility        2.44
##  6 South Korea 1961  fertility        5.99
##  7 Germany     1961  life_expectancy 69.8 
##  8 South Korea 1961  life_expectancy 53.8 
##  9 Germany     1962  fertility        2.47
## 10 South Korea 1962  fertility        5.79
## # ... with 214 more rows

This achieves the separation we wanted. However, we are not done yet. We need to create a column for each variable. As we learned, the spread function can do this:

dat %>% 
  separate(key, c("year", "variable_name"), extra = "merge") %>%
  spread(variable_name, value) 

## # A tibble: 112 x 4
##    country year  fertility life_expectancy
##    <chr>   <chr>     <dbl>           <dbl>
##  1 Germany 1960       2.41            69.3
##  2 Germany 1961       2.44            69.8
##  3 Germany 1962       2.47            70.0
##  4 Germany 1963       2.49            70.1
##  5 Germany 1964       2.49            70.7
##  6 Germany 1965       2.48            70.6
##  7 Germany 1966       2.44            70.8
##  8 Germany 1967       2.37            71.0
##  9 Germany 1968       2.28            70.6
## 10 Germany 1969       2.17            70.5
## # ... with 102 more rows

The data is now in tidy format with one row for each observation with three variables: year, fertility and life expectancy.

3.4 unite

It is sometimes useful to do the inverse of separate, unite two columns into one. To demonstrate how to use unite, we show code that, although this is not an optimal approach, serves as an illustration. Suppose that we did not know about extra and used this command to separate:

dat %>% 
  separate(key, c("year", "first_variable_name", "second_variable_name"), fill = "right")

## # A tibble: 224 x 5
##    country     year  first_variable_name second_variable_name value
##    <chr>       <chr> <chr>               <chr>                <dbl>
##  1 Germany     1960  fertility           <NA>                  2.41
##  2 South Korea 1960  fertility           <NA>                  6.16
##  3 Germany     1960  life                expectancy           69.3 
##  4 South Korea 1960  life                expectancy           53.0 
##  5 Germany     1961  fertility           <NA>                  2.44
##  6 South Korea 1961  fertility           <NA>                  5.99
##  7 Germany     1961  life                expectancy           69.8 
##  8 South Korea 1961  life                expectancy           53.8 
##  9 Germany     1962  fertility           <NA>                  2.47
## 10 South Korea 1962  fertility           <NA>                  5.79
## # ... with 214 more rows

We can achieve the same final result by uniting the second and third columns like this:

dat %>% 
  separate(key, c("year", "first_variable_name", "second_variable_name"), fill = "right") %>%
  unite(variable_name, first_variable_name, second_variable_name, sep="_")

## # A tibble: 224 x 4
##    country     year  variable_name   value
##    <chr>       <chr> <chr>           <dbl>
##  1 Germany     1960  fertility_NA     2.41
##  2 South Korea 1960  fertility_NA     6.16
##  3 Germany     1960  life_expectancy 69.3 
##  4 South Korea 1960  life_expectancy 53.0 
##  5 Germany     1961  fertility_NA     2.44
##  6 South Korea 1961  fertility_NA     5.99
##  7 Germany     1961  life_expectancy 69.8 
##  8 South Korea 1961  life_expectancy 53.8 
##  9 Germany     1962  fertility_NA     2.47
## 10 South Korea 1962  fertility_NA     5.79
## # ... with 214 more rows

Then spreading the columns:

dat %>% 
  separate(key, c("year", "first_variable_name", "second_variable_name"), fill = "right") %>%
  unite(variable_name, first_variable_name, second_variable_name, sep="_") %>%
  spread(variable_name, value) %>%
  rename(fertlity = fertility_NA)

## # A tibble: 112 x 4
##    country year  fertlity life_expectancy
##    <chr>   <chr>    <dbl>           <dbl>
##  1 Germany 1960      2.41            69.3
##  2 Germany 1961      2.44            69.8
##  3 Germany 1962      2.47            70.0
##  4 Germany 1963      2.49            70.1
##  5 Germany 1964      2.49            70.7
##  6 Germany 1965      2.48            70.6
##  7 Germany 1966      2.44            70.8
##  8 Germany 1967      2.37            71.0
##  9 Germany 1968      2.28            70.6
## 10 Germany 1969      2.17            70.5
## # ... with 102 more rows
…
Now we are now ready to extract the words for all our tweets.

tweet_words <- campaign_tweets %>% 
  mutate(text = str_replace_all(text, "https://t.co/[A-Za-z\\d]+|&amp;", ""))  %>%
  unnest_tokens(word, text, token = "regex", pattern = pattern) 

And we can now answer questions such as what are the most commonly used words?:

tweet_words %>% 
  count(word) %>%
  arrange(desc(n))

## # A tibble: 6,211 x 2
##    word      n
##    <chr> <int>
##  1 the    2335
##  2 to     1413
##  3 and    1246
##  4 a      1210
##  5 in     1189
##  6 i      1161
##  7 you    1000
##  8 of      983
##  9 is      944
## 10 on      880
## # ... with 6,201 more rows

It is not surprising that these are the top words. The top words are not informative. The tidytext package has a database of these commonly used words, referred to as stop words, in text mining:

stop_words

## # A tibble: 1,149 x 2
##    word        lexicon
##    <chr>       <chr>  
##  1 a           SMART  
##  2 a's         SMART  
##  3 able        SMART  
##  4 about       SMART  
##  5 above       SMART  
##  6 according   SMART  
##  7 accordingly SMART  
##  8 across      SMART  
##  9 actually    SMART  
## 10 after       SMART  
## # ... with 1,139 more rows
…
Now that we have all our words in a table, along with information about what device was used to compose the tweet they came from, we can start exploring which words are more common when comparing Android to iPhone.

For each word, we want to know if it is more likely to come from an Android tweet or an iPhone tweet. We previously introduced the odds ratio as a summary statistic useful for quantifying these differences. For each device and a given word, lets call it y, we compute the odds or the ratio between the proportion of words that are y and not y and compute the ratio of those odds. Here we will have many proportions that are 0, so we use the 0.5 correction described in the Association Test section.

android_iphone_or <- tweet_words %>%
  count(word, source) %>%
  spread(source, n, fill = 0) %>%
  mutate(or = (Android + 0.5) / (sum(Android) - Android + 0.5) / 
           ( (iPhone + 0.5) / (sum(iPhone) - iPhone + 0.5)))
android_iphone_or %>% arrange(desc(or))

## # A tibble: 5,509 x 4
##    word      Android iPhone    or
##    <chr>       <dbl>  <dbl> <dbl>
##  1 mails          22      0  39.3
##  2 poor           13      0  23.6
##  3 poorly         12      0  21.8
##  4 @cbsnews       11      0  20.1
##  5 bosses         11      0  20.1
##  6 turnberry      11      0  20.1
##  7 angry          10      0  18.3
##  8 write          10      0  18.3
##  9 brexit          9      0  16.6
## 10 defend          9      0  16.6
## # ... with 5,499 more rows

android_iphone_or %>% arrange(or)

## # A tibble: 5,509 x 4
##    word                   Android iPhone      or
##    <chr>                    <dbl>  <dbl>   <dbl>
##  1 #makeamericagreatagain       0    296 0.00144
##  2 #americafirst                0     71 0.00607
##  3 #draintheswamp               0     63 0.00683
##  4 #trump2016                   3    412 0.00718
##  5 #votetrump                   0     56 0.00769
##  6 join                         1    157 0.00821
##  7 #imwithyou                   0     51 0.00843
##  8 #crookedhillary              0     30 0.0143 
##  9 #fitn                        0     30 0.0143 
## 10 #gopdebate                   0     30 0.0143 
## # ... with 5,499 more rows

Given that several of these words are overall low frequency words, we can impose a filter based on the total frequency like this:

android_iphone_or %>% filter(Android+iPhone > 100) %>%
  arrange(desc(or))

## # A tibble: 30 x 4
##    word        Android iPhone    or
##    <chr>         <dbl>  <dbl> <dbl>
##  1 @cnn            104     18  4.95
##  2 bad             104     26  3.45
##  3 crooked         157     49  2.79
##  4 ted              85     28  2.62
##  5 interviewed      76     25  2.62
##  6 media            77     26  2.56
##  7 cruz            116     46  2.19
##  8 hillary         290    119  2.14
##  9 win              74     30  2.14
## 10 president        84     35  2.08
## # ... with 20 more rows

android_iphone_or %>% filter(Android+iPhone > 100) %>%
  arrange(or)

## # A tibble: 30 x 4
##    word                   Android iPhone      or
##    <chr>                    <dbl>  <dbl>   <dbl>
##  1 #makeamericagreatagain       0    296 0.00144
##  2 #trump2016                   3    412 0.00718
##  3 join                         1    157 0.00821
##  4 tomorrow                    25    101 0.218  
##  5 vote                        46     67 0.600  
##  6 america                    114    141 0.703  
##  7 tonight                     71     84 0.737  
##  8 iowa                        62     65 0.831  
##  9 poll                       117    103 0.990  
## 10 trump                      112     92 1.06   
## # ... with 20 more rows
…
In sentiment analysis, we assign a word to one or more sentiments. Although this approach will miss context dependent sentiments, such as sarcasm, when performed on large numbers of words, summaries can provide insights.

The first step in sentiment analysis is to assign a sentiment to each word. The tidytext package includes several maps or lexicons in the object sentiments:

table(sentiments$lexicon)

## 
##    AFINN     bing loughran      nrc 
##     2476     6788     4149    13901

The bing lexicon divides words into positive and negative sentiments. We can see this using the tidytext function get_sentiments:

get_sentiments("bing")

## # A tibble: 6,788 x 2
##    word        sentiment
##    <chr>       <chr>    
##  1 2-faced     negative 
##  2 2-faces     negative 
##  3 a+          positive 
##  4 abnormal    negative 
##  5 abolish     negative 
##  6 abominable  negative 
##  7 abominably  negative 
##  8 abominate   negative 
##  9 abomination negative 
## 10 abort       negative 
## # ... with 6,778 more rows

The AFINN lexicon assigns a score between -5 and 5, with -5 the most negative and 5 the most positive.

get_sentiments("afinn")

## # A tibble: 2,476 x 2
##    word       score
##    <chr>      <int>
##  1 abandon       -2
##  2 abandoned     -2
##  3 abandons      -2
##  4 abducted      -2
##  5 abduction     -2
##  6 abductions    -2
##  7 abhor         -3
##  8 abhorred      -3
##  9 abhorrent     -3
## 10 abhors        -3
## # ... with 2,466 more rows
…
